{
  "title": "Fishing Boats",
  "description": "If you are the captain of a boat, owner or a fleet manager, and you have old gear you would like to recycle, please get in touch with your regional coordinator: [Maine](mailto:erin@netyourproblem.com), [California/Mexico](mailto:sara@netyourproblem.com), [Alaska/Pacific Northwest](mailto:nicole@netyourproblem.com).  You will then get sent a pricing agreement which details the costs for recycling, and provides more logistics and collects information for you to become our newest customer! \n\nIn order to initiate a project in a new area, or in a new fishery, we need to have some pictures of the gear (to get an idea of the type, its condition and the amount) as well as some physical samples sent to our office in Seattle that we can test to determine what type of plastic it is.  We will then determine which recycler to send the gear to.  \n\nWhen we ask for samples, we are looking for,\n\n* Bits of every different type of material that you want to recycle.\n* Those bits put into individual containers, with a sticky note that says what local terminology you would use to describe a particular part of the gear.\n\nHere is an example of what we mean,\n\n![Net Samples](/public/files/images/img_2085-net-samples_resized.jpg)\n\nOnce we have confirmed that we can recycle the material you have, then we will move to Step 2 which is to arrange the shipping to an appropriate recycler depending on the material you have. \n\nIf your project area/fishery is already listed on our website, then we have confirmed the samples and organized the shipping, so we can incorporate you into an existing project structure. Please contact us to get the details of how you can participate."
}