{
  "title": " Government Agency",
  "description": "If you work for a state or federal governmental agency, and have request for proposals (RFPs), grants or other funding opportunities you would like us to apply for, or you would like help in designing a long term gear disposal project for your Port, landfill or transfer station, please get in touch with us. Our bids will surely be competitive and you can feel good knowing that the gear is being recycled, instead of getting buried in a landfill or polluting the environment.  In order for gear recycling to be sustainable, we need to develop long term solutions, and governments are perfect, consistent partners to help with the implementation of these solutions."
}