{
  "title": " Logistics",
  "description": "If you would like to become a link in one of our logistics chains, please get in touch with us. To get gear from remote fishing ports to our global recycling partners is no small feat. We need trucks, wheel loaders, forklifts, storage locations, labor, containers… If you can provide any or all of these services, we will gladly welcome your help and participation in our net recycling operations. We are set up as a for-profit business explicitly so that we make sure we can compensate any partners at their market rate.  Also, please contact us if a recycling program doesn’t exist in your area of operation but you would like to help start one."
}