{
  "cards": [
    {
      "cardTitle": "Benefits of Recycling Gear",
      "cardDescription": "Video released on Nov 29, 2020\n\n<iframe src=\"https://www.youtube.com/embed/LsOQw2KzeDU\" frameborder=\"0\" allow=\"accelerometer; autoplay; clipboard-write; encrypted-media; gyroscope; picture-in-picture\" allowfullscreen></iframe>"
    },
    {
      "cardDescription": "Submitted October, 2020\n\n<iframe src=\"https://www.youtube.com/embed/o27kpK9SEvQ\" frameborder=\"0\" allow=\"accelerometer; autoplay; clipboard-write; encrypted-media; gyroscope; picture-in-picture\" allowfullscreen></iframe>",
      "cardTitle": "OceanImpact Pitch"
    },
    {
      "cardTitle": "OCTO Webinar",
      "cardDescription": "Webinar originally aired on Sept 2, 2020\n\n<iframe title=\"vimeo-player\" src=\"https://player.vimeo.com/video/454129593\" frameborder=\"0\" allowfullscreen></iframe>",
      "cardExternalLink": ""
    },
    {
      "cardTitle": "Gillnet Stripping Tutorial",
      "cardDescription": "Filmed June 2020\n\n<iframe src=\"https://www.youtube.com/embed/lhH2W2Qv1cM\" frameborder=\"0\" allow=\"accelerometer; autoplay; encrypted-media; gyroscope; picture-in-picture\" allowfullscreen></iframe>"
    },
    {
      "cardTitle": "2020 Ocean Tuesday",
      "cardDescription": "Presentation given May 12, 2020\n\n<iframe src=\"https://www.youtube.com/embed/yevZBcONHts\" frameborder=\"0\" allow=\"accelerometer; autoplay; encrypted-media; gyroscope; picture-in-picture\" allowfullscreen></iframe>"
    },
    {
      "cardTitle": "Accelerator Pitch",
      "cardDescription": "Presentation given April 7, 2020\n\n<iframe src=\"https://www.youtube.com/embed/a0NccSBZUf0\" frameborder=\"0\" allow=\"accelerometer; autoplay; encrypted-media; gyroscope; picture-in-picture\" allowfullscreen></iframe>"
    },
    {
      "cardTitle": "AFE Marine Debris Summit",
      "cardDescription": "Presentation from Feb 14, 2020.\n\n<iframe src=\"https://docs.google.com/presentation/d/e/2PACX-1vTel8Mid7Qu28iEuQJF0A-SraqTrVuCWcOdD30ejuRammKHJbHZHJFJcC-80R0TUA/embed?start=false&loop=false&delayms=3000\" frameborder=\"0\" allowfullscreen=\"true\" mozallowfullscreen=\"true\" webkitallowfullscreen=\"true\"></iframe>"
    },
    {
      "cardTitle": "AFE 2020",
      "cardDescription": "Presentation from Feb 13, 2020.\n\n<iframe src=\"https://docs.google.com/presentation/d/e/2PACX-1vTtnTmW4G_9INOTD3m5n92F7Ub5Z562w_IFKHzwJNMLsV7G-0I4YRnhRRhcuRpYAA/embed?start=false&loop=false&delayms=3000\" frameborder=\"0\" allowfullscreen=\"true\" mozallowfullscreen=\"true\" webkitallowfullscreen=\"true\"></iframe>"
    },
    {
      "cardTitle": "Arctic Council",
      "cardDescription": "Presentation from Feb 12, 2020.\n\n<iframe src=\"https://docs.google.com/presentation/d/e/2PACX-1vTYO5TCUCsDm2XBmFJOCi8VKHw0TfvSxE9Xk2uuT2e3YZhPYxp-fj-SXdqggp5jLg/embed?start=false&loop=false&delayms=3000\" frameborder=\"0\" allowfullscreen=\"true\" mozallowfullscreen=\"true\" webkitallowfullscreen=\"true\"></iframe>"
    },
    {
      "cardTitle": "Salmon Canners Assoc.",
      "cardDescription": "Presentation from Jan 15, 2020.\n\n<iframe src=\"https://docs.google.com/presentation/d/e/2PACX-1vRrKn9FUqsBXVjCA_Qh3-iaWFV_N73F1IFc5ED0UQEjFP3ZvXo-0LL63clSI0JFtg/embed?start=false&loop=false&delayms=3000\" frameborder=\"0\" allowfullscreen=\"true\" mozallowfullscreen=\"true\" webkitallowfullscreen=\"true\"></iframe>"
    },
    {
      "cardTitle": "Earth Day in Haines",
      "cardDescription": "Presentation given April 19, 2019.\n<iframe src=\"https://docs.google.com/presentation/d/e/2PACX-1vT-7ZyiKNkDzWpZEFLJoAs9ZrUie4dd_vqjo78T-cfb_80PoNnUtLKU5EymzhLoKQ/embed?start=false&loop=false&delayms=3000\" frameborder=\"0\" allowfullscreen=\"true\" mozallowfullscreen=\"true\" webkitallowfullscreen=\"true\"></iframe>",
      "cardExternalLink": ""
    },
    {
      "cardTitle": "ComFish 2019",
      "cardDescription": "Presentation given March 2019.\n<iframe src=\"https://docs.google.com/presentation/d/e/2PACX-1vTkkUSj4ACYlqWvkQDiQK111KBgitOURQz2lBz0bi8FGXOBC3AVFPHud2jgYAN-QlYP0x1WHRbYAD_d/embed?start=false&loop=false&delayms=3000\" frameborder=\"0\" allowfullscreen=\"true\" mozallowfullscreen=\"true\" webkitallowfullscreen=\"true\"></iframe>"
    },
    {
      "cardTitle": "Salmon Industry Meeting",
      "cardDescription": "Presentation given Jan 2019.\n<iframe src=\"https://docs.google.com/presentation/d/e/2PACX-1vQEMFOBMi5BUKeHcjtDW9JQULBQkRzTcvfkpSFXyqsgjGoFoA9LDK9_FWKSUgWeXhpKBd3TWqmP-oWp/embed?start=false&loop=false&delayms=3000\" frameborder=\"0\" allowfullscreen=\"true\" mozallowfullscreen=\"true\" webkitallowfullscreen=\"true\"></iframe>"
    },
    {
      "cardTitle": "2018 FISH Workshop",
      "cardDescription": "Presentation given December 2018.\n\n<iframe src=\"https://docs.google.com/presentation/d/e/2PACX-1vTUX23WMpg_ncdyfUmqXeVikuSV5moJowsnb_6ac1yHVkRrZmyXauvoZtVsYde2q1UvyuYgKP78YlV0/embed?start=false&loop=false&delayms=3000\" frameborder=\"0\" allowfullscreen=\"true\" mozallowfullscreen=\"true\" webkitallowfullscreen=\"true\"></iframe>"
    },
    {
      "cardTitle": "ASP Symposium",
      "cardDescription": "Presentation given Nov 2018.\n\n<iframe src=\"https://www.youtube-nocookie.com/embed/HUIYzH3gVUk\" frameborder=\"0\" allow=\"accelerometer; autoplay; encrypted-media; gyroscope; picture-in-picture\" allowfullscreen></iframe>"
    },
    {
      "cardTitle": "2018 Ocean Tuesday ",
      "cardDescription": "Presentation given Feb 27, 2018.\n\n<iframe src=\"https://www.youtube.com/embed/G8wLjBJaHgI\" frameborder=\"0\" allow=\"accelerometer; autoplay; encrypted-media; gyroscope; picture-in-picture\" allowfullscreen></iframe>"
    }
  ]
}