{
  "title": "Dillingham, Alaska",
  "description": "### Summary\n\nDillingham, Alaska was the third location where Net Your Problem got involved recycling end of life fishing gear.  This additional location was possible because of a partnership with the [](http://www.curyungtribe.com/)[Curyung Tribal Council](http://www.curyungtribe.com/) (CTC).  The CTC has been recycling used gillnet web since 2008 with financial support from the IGAP program as well as Northland Services.  When Nicole traveled to Dillingham to study salmon management in June 2019, she stopped by to introduce herself and what she was working on, and the timing could not have been more perfect.  The CTC was looking to streamline their program, and partnering with Net Your Problem was a great solution.  Throughout the summer, tribal staff sorted the gear, packaged it and then loaded it into shipping containers to be shipped via ocean freight.  The tribe collects both gillnets and seines which can be sent to the same recycler.  At the end of the summer, the gear was shipped to BC, Canada and arrived in December 2019.  The final amount of gear that was exported for recycling was 6,701 lbs.  \n\nWe were not able to export everything that had been dropped off at the collection point (there was just too much for the limited staff to process before the winter weather came), but we are working on engaging additional partners who are interested in financially contributing to this project, and moving towards a long term waste management solution for fishing gear in Dillingham.  If you are interested in getting involved in that, please reach out.  KDLG did a great story on Net Your Problem's new partnership with the Curyung Tribal Council [here](https://www.kdlg.org/post/net-recycling-gets-boost-dillingham#stream/0). \n\n<br>\n\n| Action                   | Status    | Date                               |\n| ------------------------ | --------- | ---------------------------------- |\n| Initial Communication    | Completed | June, 2019                         |\n| Site Visit               | Completed | June, 2019; June 2022              |\n| Nets Shipped Offsite     | Completed | October, 2019; Aug 2022; Sept 2022 |\n| Nets Arrived At Recycler | Completed | December, 2019                     |\n\n<br>\n\n### Partners\n\nI would like to personally thank the Curyung Tribal Council for their willingness to spend time preparing materials for a new recycler."
}