{
  "title": "King Cove, Alaska",
  "description": "### Summary\n\nKing Cove, a remote fishing village located on the Alaska Peninsula, was the fourth location where Net Your Problem became involved in recycling end of life fishing gear.  This project was a joint venture between Net Your Problem, [Delta Backhaul Company](https://dbcalaska.net/) (DBC) and the Agdaadux Tribe of King Cove.  DBC is a solid waste consultant focused on solid waste improvement projects and household hazardous waste backhaul programs in rural Alaska.  DBC had been developing a backhaul project with the Agdaagux Tribe that focused on collecting and removing old fishing gear that had accumulated in the harbor for decades. In August 2019, DBC partnered with Net Your Problem to support the project and find a recycler that would accept the collected fishing gear.  DBC traveled to King Cove in September of 2019 to collect and sort the gear.  It took three days for the crew to dissect the pile of lines and nets, palletize the material and load it into two 20’ containers for shipping via ocean freight.  The project included a variety of end of life fishing gear, including crab lines, gillnets and seines.  Nets and lines each went to a different recycler, necessitating two separate barge companies for transportation.  The lines were shipped to a recycler in Denmark and arrived in Jan 2020.  The gillnets and seines were shipped to British Columbia, Canada and arrived in November 2019.  The project was a huge success and shipped a total of 30,275 lbs. of end of life fishing gear, cleaning up a section of the harbor in King Cove that can now be used again by the community.\n\nSome of the material collected during this project was not able to be recycled but DBC packaged all material that was identified as end of life and staged it on pallets for future disposal.  Net Your Problem has been busy developing a strategy to work with the Aleutians East Borough to identify a sustainable funding model to implement a long-term fishing gear recycling program in both King Cove and Sand Point. Check back for updates on this exciting project in the Aleutians.\n\n<br>\n\n| Action                   | Status           | Date                           |\n| ------------------------ | ---------------- | ------------------------------ |\n| Initial Communication    | Completed        | August, 2019                   |\n| Site Visit               | Completed by DBC | Sept, 2019                     |\n| Nets Shipped Offsite     | Completed        | October, 2019                  |\n| Nets Arrived At Recycler | Completed        | November, 2019 & January, 2020 |\n\n<br>\n\n### Partners\n\nI would like to personally thank Delta Backhaul Company for their invitation to be involved in this project as well as the on the ground work preparing the materials for recycling by the Agdaagux Tribe."
}