{
  "title": "Maine, USA",
  "description": "Erin lives and works in Portland, Maine and is the woman behind the Rope Depot.  S﻿he is assisted by [Briony ](mailto:briony@netyourproblem.com)and both women accept colored and coiled lines at no charge, and sell them to other small businesses.  Any ropes that are not suitable for reuse will be sent for mechanical recycling to Europe (float rope) or turned into a concrete additive in Pennsylvania. Please c﻿ontact [Briony](mailto:briony@netyourproblem.com)if you are interested in stopping by our facility to check out our rotating inventory.  We are unfortunately not able to ship rope at this time.  We are also offering a limited pickup service to assist you with disposal of your rope if you are unable to transport it to our facility.  Hours of operation will be posted as soon as they are finalized, but will be primarily on Sundays, when fishermen cant haul traps.  We need to make sure that this solution to end of life gear disposal works for them!  If you are interested in collaborating with us in this region please reach out to B﻿riony."
}